bank_marketing_ex3
…
# feature correlation
data_frame(
  row  = rownames(cor_matrix)[row(cor_matrix)[upper.tri(cor_matrix)]],
  col  = colnames(cor_matrix)[col(cor_matrix)[upper.tri(cor_matrix)]],
  corr = cor_matrix[upper.tri(cor_matrix)]
  ) %>%
  arrange(desc(abs(corr)))

## Warning: `data_frame()` is deprecated as of tibble 1.1.0.
## Please use `tibble()` instead.
## This warning is displayed once every 8 hours.
## Call `lifecycle::last_warnings()` to see where this warning was generated.

## # A tibble: 171 x 3
##    row            col              corr
##    <chr>          <chr>           <dbl>
##  1 emp.var.rate   euribor3m       0.972
##  2 emp.var.rate   cons.price.idx  0.775
##  3 cons.price.idx euribor3m       0.686
##  4 contact        cons.price.idx  0.594
##  5 pdays          previous       -0.588
##  6 pdays          poutcome       -0.492
##  7 previous       euribor3m      -0.453
##  8 previous       emp.var.rate   -0.418
##  9 contact        euribor3m       0.403
## 10 contact        emp.var.rate    0.397
## #  with 161 more rows
…
